…
gs_tutoring <- "1vyVNz2ClxDVcPr7oa1LTc0YyHwZ53DI_lBSvKtl3v8M" # Googlesheet data
```

## Step 2: Tidy the data

Data rarely comes in the form that you need it for proper analysis and visualizations. You often have to manipulate from a "wide" format into a "long" (aka "tidy") format. After your data is in the right format, you transform it to your heart's desire.

{{< panelset class="greetings" >}}
{{< panel name="Not tidy (How it's given) :thumbsdown:" >}}


```
## # A tibble: 28 x 60
##       id Status Orientation Day     Time     `Tutor Name` `Tutor Phone`
##    <int> <chr>  <chr>       <chr>   <chr>    <chr>        <chr>        
##  1     1 Active AB          Monday  4:30 PM  Tutor 1      <NA>         
##  2     2 Active ZR          Monday  4:45 PM  Tutor 2      <NA>         
##  3     3 Active DG          Monday  5:00 PM  Tutor 3      <NA>         
##  4     4 Active LJ          Monday  5:30 PM  Tutor 4      <NA>         
##  5     5 Active AB          Monday  5:30 PM  Tutor 5      <NA>         
##  6     6 Active ZR          Monday  5:30 PM  Tutor 6      <NA>         
##  7     7 Active DG          Monday  6:00 PM  Tutor 7      <NA>         
##  8     8 Active AB          Monday  6:00 PM  Tutor 8      <NA>         
##  9     9 Active ZR          Monday  6:00 PM  Tutor 9      <NA>         
## 10    10 Active DG          Tuesday 11:00 AM Tutor 10     <NA>         
## # ... with 18 more rows, and 53 more variables:
## #   `Tutor Unexcused Tardies` <chr>, `Tutor Unexcused Absences` <chr>,
## #   `Subject Tutored` <chr>, `Student Name` <chr>,
## #   `Student Unexcused Tardies` <chr>, `Student Unexcused Absences` <chr>,
## #   Cohort <chr>, Counselor <chr>, `Start Date` <date>,
## #   `Projected End Date` <date>, `Actual End Date` <date>, `2021-09-20` <chr>,
## #   `2021-09-27` <chr>, `2021-10-04` <chr>, `2021-10-11` <chr>, ...
```

{{< /panel >}}
{{< panel name="Tidy (How we want it) :thumbsup:" >}}


```r
df_attendance_long
```

```
## # A tibble: 1,008 x 27
##       id Status Orientation week_of    tutoring_date Day    Time    `Tutor Name`
##    <int> <chr>  <chr>       <date>     <date>        <chr>  <chr>   <chr>       
##  1     1 Active AB          2021-09-20 2021-09-20    Monday 4:30 PM Tutor 1     
##  2     1 Active AB          2021-09-27 2021-09-27    Monday 4:30 PM Tutor 1     
##  3     1 Active AB          2021-10-04 2021-10-04    Monday 4:30 PM Tutor 1     
##  4     1 Active AB          2021-10-11 2021-10-11    Monday 4:30 PM Tutor 1     
##  5     1 Active AB          2021-10-18 2021-10-18    Monday 4:30 PM Tutor 1     
##  6     1 Active AB          2021-10-25 2021-10-25    Monday 4:30 PM Tutor 1     
##  7     1 Active AB          2021-11-01 2021-11-01    Monday 4:30 PM Tutor 1     
##  8     1 Active AB          2021-11-08 2021-11-08    Monday 4:30 PM Tutor 1     
##  9     1 Active AB          2021-11-15 2021-11-15    Monday 4:30 PM Tutor 1     
## 10     1 Active AB          2021-11-22 2021-11-22    Monday 4:30 PM Tutor 1     
## # ... with 998 more rows, and 19 more variables: `Tutor Phone` <chr>,
## #   `Tutor Unexcused Tardies` <chr>, `Tutor Unexcused Absences` <chr>,
## #   `Subject Tutored` <chr>, `Student Name` <chr>,
## #   `Student Unexcused Tardies` <chr>, `Student Unexcused Absences` <chr>,
## #   Cohort <chr>, Counselor <chr>, `Start Date` <date>,
## #   `Projected End Date` <date>, `Actual End Date` <date>,
## #   `Total Sessions Missed` <dbl>, `Total Sessions  Held` <dbl>, ...
```
…
